flqrgnkx-0: ##.#.#..####.###.##.#.####.###..#.#######.....###...#####....#.....#.##.##..##..#####.#.#...#.####...##.##.#...######..####..##.: 74: 74
flqrgnkx-1: .#.#.#.####.#.#.#.##..####...#..#####.#########.##.####....#.##.##.###..###.##....#.##...##..##.##.###.##.#...#..##..#...##..#..: 72: 146
flqrgnkx-2: ....#.#.##.#####...#..#######.#..#......###.#...###.#.#.#......#.#.#..##.###.##..###.###.##.#.#.####..###.##.####.##..#...##...#: 68: 214
flqrgnkx-3: #.#.##.#..####.##.#...#.#...##..##.#.####.###...#####.###..##..#.###.#....#.##......###..##...##.##..###..#.##..#.#.####.##...#.: 68: 282
flqrgnkx-4: .##.#.....#.#######..#..#...##...#.#.#.##....###.##.#.#.#.#.#.#.#.#....#...###.#####..#..##...##.#..#####..#.##.##.#..##...##.#.: 64: 346
flqrgnkx-5: ##..#..#####.#.###############...#...##..#..#.#..#.#.##..#.######..####.#..#.#..####..##..#...###.#.#...#.#.#.#.#.#.#..#.#..#.##: 72: 418
flqrgnkx-6: .#...#..##.........##.#..###..#..##...#..##.##..###.###.....###...###.####......###.#...#..##...#...##.#...#..##.###.#...##...##: 56: 474
flqrgnkx-7: ##.#.##..###..#...##.##.....#.....##....##...##...###..#.#..#..#.#...##.#.#.##..##.##..#..##.###.###.##..#.####......##...##.##.: 60: 534
flqrgnkx-8: ####.######..###..#.#..#.#.#######..#.###.#.##..##.#..##.......#..###.##.#.###..#..####.#..#.#..##....###......#.##.#####..#..##: 70: 604
flqrgnkx-9: ##.#.####......##...###.....####..###.##..###...#.####.#......#.#.###..##.#...#.#..#.#.##.....#.#####..##..#.####..##...#..#...#: 62: 666
flqrgnkx-10: ...#....#.##..#..#.#...#.##....###.####.##.##.#..###.##...##.##..#...#...###...#...####...#.#..#.#..#...#.#.#..#..#..###...#..#.: 56: 722
flqrgnkx-11: .###########....#..#...#.####..####.#...###.#..#.##.####.##..###.#..##.##..####..##......##...#.##...#....#...#..###..##..#.#.#.: 66: 788
flqrgnkx-12: ...#.##...#..###.#.##.#.####...#.......#.#....#..#...#.#.#####...#.#.#.#...###.##...#.#####...##.#.#.##....####....##.###..#..##: 60: 848
flqrgnkx-13: .#..##..###..##...#.###.###..###......##.##.#..#...#.#.#....#######.#..##.##..####.###.###...###.#..##.##.#..###.#..##..####.#.#: 70: 918
flqrgnkx-14: #...#....##.##..#.##..#.#.##.##.....#.#..#...#...###.##.#.####..######.#.#.#.#.###.#.##.###.##.###...#.#....###...###.#......##.: 64: 982
flqrgnkx-15: ##..##.##.##.#..###.#..##.#....#.#.#...##..#..#..#...###...##..######.......##..#.#..#..####.##.###.......###.....#####.###.##..: 62: 1044
flqrgnkx-16: ..##.##..######...##.....####...##.#.#.###...#.#####..##.#.###..#.###.#..#####...#.#.#....###..#...#.#.....#...##.....###..#..#.: 62: 1106
flqrgnkx-17: ######.#..#.#.#..#.#...#.##.....##.#...#.#...#..#..#..#.#.#.###..###.#......##..#.#.#...#.#...#....##.#.##....#..#...##.#.#...##: 54: 1160
flqrgnkx-18: .######.#.#.#####....###.#####..#.######..#...#....#.#####.####.##.....#.#.##.#.#.##.#..####..#.#.#######..#.####.#.#.#...#....#: 74: 1234
flqrgnkx-19: #.#.##...#...##...###..#...###...#....#..##.####..#.....##.#.#.###..#...##.##.##.#####...#...##.#..#.###...#..#.###.#..#.#.#..#.: 60: 1294
flqrgnkx-20: ....#.##....###.#....####..#.#####.#..#.#.##.##.##..#..#####..######..#######.....##.#...#......#.#.#####..#...#...#..##...##..#: 64: 1358
flqrgnkx-21: #..#....#.#.####...#......#..##.#.##...#.#..###.#.#.#.###.....####....#########.##.##....#..##.##.###......#.#...##.....#.###.#.: 60: 1418
flqrgnkx-22: ..##.####..#.####..#####..####...###.##.....#.#.###.###....##...###.##..#..#.#.##.#.#......#.#...#..##.#..###....######..#...###: 66: 1484
flqrgnkx-23: .#.#..#..##.#.#..##.#.#.#......####.#..##.##.#......#..#.....#...##..##..#..#...#.#.#.#.#..###..#########.....##.#..#...#.#.####: 58: 1542
flqrgnkx-24: ......#..#.#.#.####.#.#..#..##.###.#..##...###......#.#.#.##.####.#.#####.###..#...##.##..#.##.###.##..##..##.#.#.#.#....#..#..#: 64: 1606
flqrgnkx-25: ..#..#..####.#..#....#.##..#...#..#...#..###.##.#.#####....#.#####...##.#####..#.##.#..#.##.####.......#.##...........##.##...#.: 58: 1664
flqrgnkx-26: ....#.#.##.#.#.......###....##.###.#.......#.#..####..#.#....#.##..#.#.#...#.#.##.#...#.##...#...#..........###...#...#.###.##.#: 50: 1714
flqrgnkx-27: ###..#.......#.#.#.#....#..#.##..#.######.#..#..#.#..#.#.#.....##.....#.##..####...#..##.##...#.#.#.#.#...##.##.#.####....#..#..: 56: 1770
flqrgnkx-28: .#.#.##.#..##....#.#.#.#.#.#.#.#......#.#...##.#..#....##.###.###.#..##.#####.#..#.#.##..#..#.#.#.#..#....##.##.##..#.####....#.: 60: 1830
flqrgnkx-29: ..#.#.#..###.#........#.#.#.###...#.....##.#.#...#.#.###...#....#.#.##.##.#.#..##..##...#.#..#....###..#....#..#..###..#.###....: 52: 1882
flqrgnkx-30: .##.##.#.#..#.#....#..###....#.##...#.....##..###..#..##.#....##.##.#######.###..#....####.#.##...#.#.#..#.##.##...###.##.#...#.: 62: 1944
flqrgnkx-31: ###...#...#.#..####..####.###.#..###...###.########.#.#..#...###..#...###.##.#..######.######..#...##.....##.#..#.##.#.##..#####: 74: 2018
flqrgnkx-32: .##.#.######.#....#.####.#.#####.##.#..##.#....#..#.##.##..#.#.#.#......#.#.####..####..#.#.....##...##....##.##..##.#.......#.#: 62: 2080
flqrgnkx-33: .####...##.#####.##...###..#.#.....##..####.#...#.#..##.###.#.##.####...#...##.##.#..#......#......##..#####.###.##..###..####..: 66: 2146
flqrgnkx-34: #.##.##...#.....##....#.##.###..##.#....#.###...##.##..#.#.##.##..#.##...##.####.#.#...#..#.#.#.##.##.#.#.##..#.####..#.##......: 62: 2208
flqrgnkx-35: ###....##..##.#..####.......##.#.##.#..####.#...###...###.#.#..#...###.#######..##..#..###..#......##.#.###.##...##..####.##.#..: 66: 2274
flqrgnkx-36: #..#.#.##.#######.....###.........#....##.##.##.##.#.##.#####..#.#..#...#..#....#.##.#..#..##....#.#.###.#.#.#.###.#.####.##....: 62: 2336
flqrgnkx-37: ###..#.##..##..##...##.#.#.#...#.#.##.#.##....#..##.#.####.###.###.##.##..##.###...##...##...#.#..#.##..#..##.##.##...#..##.#.#.: 66: 2402
flqrgnkx-38: ..###..####....#...#.#...#.##..####...#.#.#.##.#.##....#...#....#....#.......#######.#####......#.###......#....###......#.#.###: 54: 2456
flqrgnkx-39: .....##.##.##.....########.####..#.#....#..#..#.###.###.####...##..#####.#.#.#.##.##..###....###.#.##.#.#..##.##.....#####.##.#.: 70: 2526
flqrgnkx-40: #..##...#..#..##.#..##.#.######...#.#..#.##.#.#...#..##...#.#..#.#.#..##.#.###.#...#.###...#..#....#.#.##....#.###.##.#...##.#.#: 60: 2586
flqrgnkx-41: #.#......####..#.##.#.#.#.###...#....#.###.#....#.###....#...#..###....######.#.#.###....##.########..###.#...##..#.#..#...#.###: 64: 2650
flqrgnkx-42: ..##.##.#.####.....#....###..###.##..##..#.#....#.##.#....##.###..#.#.##...#....##..###.##.###..##.##..#.....#.#..######......#.: 60: 2710
flqrgnkx-43: .#.#.#.###.##.#.##..#.#.#...#....###.####..####.###..##.#.##.#.#.#####.##...#.##.#.###..#.#...##.....#...####..##.####..#.######: 72: 2782
flqrgnkx-44: ######..##.#####..#...##.#.#.#..##.##..####.#.##....#.####...#....#.....#..###.#######.#.###..#..#######...##....##.....#..###..: 68: 2850
flqrgnkx-45: .....####.##.###.#.#...#.##...###...#.####...##..#..#.##...#..##...##..#.#.###..####.##.#...###.#.#####.#.#...#......#.##.##..##: 64: 2914
flqrgnkx-46: ..##....##.########.#.#####.##.##.#.##..#.##.#......###..#...#.##..##....##...#.####....##.#....#...###.#.#....#.#..##.#......#.: 60: 2974
flqrgnkx-47: .#.#..#.#..#.###..##..#.###.##.#.###..#.###.##....#.#.###.#.###...##....#.......##..#.#######...##.#####..##..##.#...#.#..#.#.##: 66: 3040
flqrgnkx-48: #..#.#..#.#..##....####.....##.#.##....#....##.######.#.##..##.####...#..##.######.##..#####..#.#.###.##...#.#....#.#.#..#.##..#: 66: 3106
flqrgnkx-49: .###.###.###...##.#.###.#.####..##.#.#.#.....###..#..#######.#.##.###.#.#...##..##.#.#.##.##..###....###.####.#.....##..#.##.#.#: 72: 3178
flqrgnkx-50: ..#.#..##.##..#...#..##..#.######.......#.##..#..#####....##.#..#..##....##..#..####..#.#.##.#.#.##.#.#...###.....#.#.##.#.##.#.: 60: 3238
flqrgnkx-51: .#....####.#..#.##...######.#.....#.###.##.#.#...##########.##...##.##..####......##..#..##.##....#..###...##.###......##.#.#...: 64: 3302
flqrgnkx-52: .##.####...#.#.#...#.##.#.#..##.##.........##..#.##..##.#.#...###..####.#.###..#.###..##..#...#.###.#.####.####.##.#.#.#.#......: 64: 3366
flqrgnkx-53: #..##.####..##.#....#..#..#.....###..####.#....##......#.##....###...#.###.....######...#..##..##.#.###.#.##...#..#....##.....#.: 56: 3422
flqrgnkx-54: ...###.####..##.#.#..#####.##..#.#.#.##.##.##....####..##..##.#...##.##.#...###.#.#######......##.#.#...###.#...#..###.##.##..##: 70: 3492
flqrgnkx-55: #...#.##.##.###.#.#.#.#.#..###...##.#.#.##...##....#.##.##.#.#.#######.#....##..#....#.#.#...##.###....#..###..####..####.##...#: 66: 3558
flqrgnkx-56: #####...#.####.##.#..##.##.##.###....#.####.###..####.#......#...#....#.##.##......#.###..#..#.###....#.###....#...######.###..#: 66: 3624
flqrgnkx-57: #.#.###.##..#.#.#.#.#.#......###...#.....#####.#...#.#.#...#.#..#..........###...##...##...#.#.#####.#..###....###.#...##...#.##: 56: 3680
flqrgnkx-58: ....##.###.#...##..##.#.#######.......#.#...##.########....###..#.#.######...#..#####.##...##.##.#.#.#.#.#..###..#...........#.#: 64: 3744
flqrgnkx-59: .###..##.#.###.#.######.#..###.#....#..#...#.....######...#.##....##.####....#.###.##..#.#..##.....####.######.#..##.....###..#.: 66: 3810
flqrgnkx-60: .#.#.#..#..##..#.####..#......###.#.#.##.#.....##..###.#.#.###......#.##..#.####...##..#......#.....#.#....#.#.##.##.#......#...: 52: 3862
flqrgnkx-61: #.#....#..#..##.####.##..####...##.#...#..###.#..######.#.##..#.#.#...#.##..###.#.####.#.##...#.#..##.###.#...#..###..####.#.###: 70: 3932
flqrgnkx-62: ...#..###.#..####.#.#.#.###.##..........##.##...#.###.#....#.#..#..#..####.#..#..###.#.#######.#.#.##..##.#..#..#.##............: 58: 3990
flqrgnkx-63: #.###.#......#.#####.###.#.##..#..#.##.#..##.....#.#....#..####.##..###.##......#.#...##.##.#.#########.##...#..#...#.#.#.##.#..: 64: 4054
flqrgnkx-64: #....##.####.##.#####.##.#.##.#..##.#.####...####.#.###..#.####..##.#..#.#.#######..##....#..####..#.....###.##..#.#.##.###.....: 72: 4126
flqrgnkx-65: ....#.#..####...#...##..#.....#..##...#.###.#.#.#.#.##.....#.#...#....###.####.#.####.######.#.#.###.##.###..##.#.######...#..##: 66: 4192
flqrgnkx-66: ###...#....##...##.#..#.##.#..##.#.#..#.###.##.###.##.##.#..#.#.#...##.#.#.####..#.#.#......##.......#.##.##.#.#.#.#.#.##.###.##: 64: 4256
flqrgnkx-67: .#....#..#..#.#.##..#.#.#.#.#..####.#..#.......#....#..#.#.#.#.####.#.####....#.##########....#.#.#....##.######....#..###.###..: 62: 4318
flqrgnkx-68: ##..#.#..#..##...####.#.#.#.#.#.#..###.##....#.....###.#.##........#.#...#.....#...#.#...####.###.....#..##.#..##.###..#.#.##.#.: 56: 4374
flqrgnkx-69: .#...#.#.###..#.#.####..##.##....#.###.#...#.#...#.#.##.#.#..##.##..#.#......#####.#....#....#..#...#...######...#..##.#.#..#.#.: 58: 4432
flqrgnkx-70: ..#.#########..#.#.######...#.#..####..####......#..#..#..#..##.#.##..##.#...#..#..#.#........###.##.#####.####.###.#......#.#..: 64: 4496
flqrgnkx-71: ...###..#.#####..###......#####..#.###.#.#####.#..#.##........#..###.####...#..#..#.....#.#.###..########.###..#....#.##.#.#####: 68: 4564
flqrgnkx-72: ....#.##.###..#...#.#..##.#.#....#.#...##..##.#.....##..##...#..###.###.#.#....####.###....#....###..###.#.#.#.##.###.#..#....#.: 58: 4622
flqrgnkx-73: ...#.##...###..##.#..#..##...#.##.#.##...#..#..#.....#...##.....##.##..#.####.###.##...#.#.#.#.#.##.###..#.##.....#.###.#..#...#: 58: 4680
flqrgnkx-74: .##.#..#######..#.###.#.#####..##...#......###..#.#..#..##.##.##...###..#.##.###.########.....#.......###..#.#..##.##.#...#..##.: 66: 4746
flqrgnkx-75: #.#.##.#.....#.#####....#..####.###.######...####..####..#.##...#....###.###....#.#.#..##..#......#.####..#.........#.#####...#.: 62: 4808
flqrgnkx-76: ....#..#.####..##..##.##..#.#.......##....##.##..##.#..#.#.#.#..##.#.######..####.###.##.##########...#.###..####..#....#.#..#.#: 68: 4876
flqrgnkx-77: ##.#.......#...#.#.#....####...#..#..#.###.#.##..#..#........#.##....####..#.#..#.#####..###.#..###########..#..#..#.#.##...#..#: 60: 4936
flqrgnkx-78: ......#.#..#....###..#####.#.#.##.#.#.#..#...###.#.......##.####..#.#.##.#..#######..#..#.#..#.####...#.....####......#.#.#.#...: 58: 4994
flqrgnkx-79: .###.###.##.##.#.....#.########.#.#..##.##.###.#..###.##..#.....#..#.#####.#..#.###....###.##...#.####...#.##.#..#..#.#..#.#...#: 68: 5062
flqrgnkx-80: ##.####..#.####.#.######.###.####.####.....##.#.#...##.##..##.####.##.#.#.......###....###......##.#.#####..#.#..###.######.#..#: 74: 5136
flqrgnkx-81: #..###......#.##.#..#..###.#.#..#.#.###.#.#...#.###.....#.####....#....#......###.#..#..##.###.#..##.##..#..###.#..##.#####...#.: 60: 5196
flqrgnkx-82: ###...##.##.##..##......####.#####....#..#####...##...#.#..#..##..##.#.####.####...#..#..#.###.##.#.##.#.##.#..##..####...###...: 68: 5264
flqrgnkx-83: .#..#..##.#..##.#..#.....##.###.....##..#.#...#...####..#.######..#.#....##.###.##...##.#....##..#...#..#....#.###.##.#...#....#: 56: 5320
flqrgnkx-84: .#.#.#.#.##.#####......##....#....#..#.#.#..#.##.#...##...##.##.##.##..##.##.##.#.#.#####.##.##..#..##.###.####.###.#.#...#.###.: 68: 5388
flqrgnkx-85: ...###.##.###....###..#.###.##..###..##.#.##..#.####...#...##...##..#######.####.#..##..##...#..##.##.###..#..#.##...#.##.#...#.: 68: 5456
flqrgnkx-86: ..##.#....#.#...###..##.####..###..######.#..#.#..#.####...###....#######.######..##..#...#.#.#.##.#..#.###.#.#.##.###...#####..: 72: 5528
flqrgnkx-87: ###..###..#..#####..#.......#...###...##.###...###.....#..#.#..##....###..#.###..###.####..#..#.#.####.#...#.###..#....##.####.#: 64: 5592
flqrgnkx-88: ###.#.##.#....#...###..##......#.#.....##########.##..####..#..###.#...#.##.#.#..#.##.#.#.#.#.#.#...###.#...##..#.####....#.....: 62: 5654
flqrgnkx-89: .##.#..###.##....#..##.#..##...#####.####.##.####..#.#####.#..#######..####...#####.####.#.##..#...####.#..#...#....#.#.###.....: 72: 5726
flqrgnkx-90: ...############.#.##..#..###..##.###......##.##........####.#.##.#..####.#...#....####.......#...####...#.##.##....###...##.##.#: 64: 5790
flqrgnkx-91: #.#.##...#.#.#.#.#.....#..#...###..#.###....#..#.#...#..#..#.##..##.###..#.#.###...#..##.####.#..##.#.##...##..#.....#..####...#: 58: 5848
flqrgnkx-92: #.#.#...#.##..#..###.#..#....####.###...###...#..#.#...##..#......#.#.###.##.#..######....##.##.##.#..#.#....##..#######....##..: 62: 5910
flqrgnkx-93: .##.#.#.###..####..#..#.#.#......##.#..#.#....#.#...##.#..#.#.....#....##.#.#.##.##.#.#####..###..##.##...###....#.#####.##..##.: 62: 5972
flqrgnkx-94: #.#......#.......#....#..#..#....#.#.#.###.#.....#......####....#..#.#...#....##...####..#.....##.##.#.#.###.#........#.#..#.#..: 44: 6016
flqrgnkx-95: #...#####.##..#....##.##.#####....##...#.####.....##.#...##.##..#.#..###..#..#...#........###...#.#######..##..#....##.##..##.##: 62: 6078
flqrgnkx-96: #...###....#####.#.##.#.#..#.....#####..##...#..#..##.##...###.###...####.#.#.#.#.#.##.#.......###......####.#.#..####..#.#.##.#: 64: 6142
flqrgnkx-97: ##.....#..#..##..#...##.#..#...#...####..#####..#.##.#.##.##.##.##...###.#.#.##.#...#..#...####.#.#.....#.#..#####.##.#.#...#.#.: 62: 6204
flqrgnkx-98: ...#.#.###.#..##...#.#..##.#.##...#..#.##..#.###..#.#..##..####.....#.#.##.....#.##..#######....##.#...##..######.#....##.##..#.: 62: 6266
flqrgnkx-99: ##.###.####.....#......###....#.#..#...##..#...#..###.##.##.#..#..#..#.#..##...#.##.###...#...#........#.#...#.#.#...#...###.#..: 52: 6318
flqrgnkx-100: ..#.###..#.###.#..##.##..#...####..##.#..#.#..##..##...####.###...##..#..#######....#.##..#.##....###.#...##.#.##..#..#.###...##: 66: 6384
flqrgnkx-101: ####.#.##.#####.####.#.#.####.#.#...##.##.##.###.#...######..#..#.##.##...####..#..#..####..##.##.######...#..#.##.#....####.#..: 76: 6460
flqrgnkx-102: #....#.#...#.....##.#...#..######..#.##..##.########..######.#.##...##..#..##....###.####..#....#.###...#.##....##......#.#..##.: 62: 6522
flqrgnkx-103: #.#.#...#.########..#.#......#.##.#.###.###.........#..#..#.#...#...#...#.#.#...#.#..##.####......#...#..#.#.#.####.###..#.##...: 56: 6578
flqrgnkx-104: ...#...##..##.#.#.#..##.#..##.#...##.##..#..##.####....##....##.#..#..#.##...##.##..........###.##.#.#.##.#.##.##.#.###.###..###: 62: 6640
flqrgnkx-105: #....###..#.#..##..##....###.####...##....##.#.#.#####.....#...#.#..##...###..#..#.#.#..#####..#.#.###..####.####.##.#.....##..#: 64: 6704
flqrgnkx-106: .##.##..##..#..##.###..###.######..#...#.#.#..#.##.....#..#...##........###..#..##.##.....#..#..###..#.#..##..##..###.##...#.###: 60: 6764
flqrgnkx-107: #.#.##.#...#..##.#.....#.######.#####..#.####.#....#.##...###..##.###...##...#.##..##...#....#########...#..#####.##.###.#..#.##: 70: 6834
flqrgnkx-108: #.#.#.#..#.##.###.###.######.#.##.####.###....#.##..#...####.#.#....######.###..#....###...##...#.####....##....#...#.###.##.##.: 70: 6904
flqrgnkx-109: #.#....#..#.#...##.#.#...###.####...##...####.#.####.#.#######.##..#.#..##.#....####..#...###.###..#..#.#...#..#.##.##.#..#.####: 68: 6972
flqrgnkx-110: ...####...#....#.#....##.......##..#.#..#.#..###..#.###...##.#.#####....#....#..###..#....##.....####.#.##......##..#####.......: 52: 7024
flqrgnkx-111: ##.....######..#...#.####..##..#..#.#.#.#...#..#.###.##..#..#..##..#.##..####..#.##.#....#.#.####...###....###...#....##..#.#.##: 62: 7086
flqrgnkx-112: ###...#####.#########.####.#..##.#.####..###.##.##.##..##.#######..##.#...####..#.#..##.##...##.##.....#.#..#.#.#.....###.#..#..: 74: 7160
flqrgnkx-113: ##.##.#..##...###....#..#.#.##..###..####.#....##.#..####..#..##.#.#....#.###..##.##.###..##.###......#.....#..##...##.#....##..: 60: 7220
flqrgnkx-114: #.#.#...#...##.#.#.######.....#..#....#.#....#.#...##.#.#.##..#....#..###..#.#...#######.###..##.#.#..###.###.#######.......##..: 62: 7282
flqrgnkx-115: #####.#.#..#..####.###...#.##....#....##.......#..#.#.##.###.#.###.#..#.#.#.###.#.#.##.#..#.#..##.##...#......#.######.#.#...###: 64: 7346
flqrgnkx-116: ...#..##.#.#.###....##.##.##...#..#.....###.###...#...##..##.#....#.#...#..##.#.###.#######.#.#...####.##...#.....#.###.....##.#: 60: 7406
flqrgnkx-117: ##..#....#.##...#.#..#..##....#.###.####.###..#.#.#...#.#.##.#...##.#.##.#.###...#.#.#.#..##.#.##........#.#.#.##....##..####..#: 60: 7466
flqrgnkx-118: .#..###.#..##.##.......#.##...####.#...##.#..#...###..##..####..#...#..####..#.####.#..#...#######.#.##.####.#####.########.#..#: 72: 7538
flqrgnkx-119: .#.##.#...####.##.###...##.....##.#...#.########.#..##.#.##.#.#.#.....##.######.#..#...###...##.##.##..#.#.#.###.##...#...#...#.: 66: 7604
flqrgnkx-120: ..#.....###..#.#.#.#.##..#.#..#..##..#.###.##...#..####...#...#.#..####.#...#...#..#.#.....###.#....###..#.#.######.##..###.#.#.: 60: 7664
flqrgnkx-121: ..##.####.##.#.#....###..#..#....#.#..####.#.#...#..###.####..########.##..##..#.#.#.###....#..#.#.#..##.##.####.#...#.##.####.#: 70: 7734
flqrgnkx-122: ..##...##..###.#.##.#.....###.#.#..##.##.###....#.#####.#.#.#..#.##.##.#..#...#....#.#..##..#..##....##..#...######.....#.##...#: 60: 7794
flqrgnkx-123: ..###.#.#.###.#.....#.#....#.##.##..###...###..#..#..#...#..#.#....#...#.#...#.###.####..#....#...#....##........#..#.#...#..##.: 50: 7844
flqrgnkx-124: .##.#.#...#.###......#.####.####.....#.#...#..##.##.####.#....###.#......#.#.#########.####.#.##..#.###..#.....#..###.##..#....#: 64: 7908
flqrgnkx-125: ###.##.#.#.##.####..##....##.##.##..####.#.##...####.#..###.##.#.#.#..##.#..#####..#.##..##.##...##.#..#.##.####..#####....###..: 74: 7982
flqrgnkx-126: ##.#..##...##.#.#....###.#.##..###.##.....#..#####...#..###.###.#..######..#.......##.##.###.#..#.#.#.##....#...#..###..#..###.#: 64: 8046
flqrgnkx-127: ..#####.##..#.#.####....##.#..#..##..#...##.###.#..###.###.....#.#..#.....#####..###.#.#..#.##.#.#.#..#..##.#...#...#.#....####.: 62: 8108
